%YAML 1.1
%TAG !u! tag:unity3d.com,2011:
--- !u!114 &11400000
MonoBehaviour:
  m_ObjectHideFlags: 0
  m_CorrespondingSourceObject: {fileID: 0}
  m_PrefabInstance: {fileID: 0}
  m_PrefabAsset: {fileID: 0}
  m_GameObject: {fileID: 0}
  m_Enabled: 1
  m_EditorHideFlags: 0
  m_Script: {fileID: 11500000, guid: 95e66c6366d904e98bc83428217d4fd7, type: 3}
  m_Name: CapsuleMovement
  m_EditorClassIdentifier: 
  _data:
    _json: '{"graph":{"variables":{"Kind":"Flow","collection":{"$content":[],"$version":"A"},"$version":"A"},"controlInputDefinitions":[],"controlOutputDefinitions":[],"valueInputDefinitions":[],"valueOutputDefinitions":[],"title":"TransformMovement","summary":null,"pan":{"x":192.6139,"y":226.5857},"zoom":1.0,"elements":[{"coroutine":false,"defaultValues":{},"position":{"x":-206.0,"y":-266.0},"guid":"e3d8d91f-9221-4a3b-a0e1-ad6b0257c025","$version":"A","$type":"Unity.VisualScripting.Start"},{"defaultValues":{},"position":{"x":187.0,"y":391.0},"guid":"2f421959-ea92-4384-ac89-559a9241734e","$version":"A","$type":"Unity.VisualScripting.GenericMultiply","$id":"11"},{"member":{"name":"deltaTime","parameterTypes":null,"targetType":"UnityEngine.Time","targetTypeName":"UnityEngine.Time","$version":"A"},"defaultValues":{},"position":{"x":-163.0,"y":412.0},"guid":"99516281-c4c3-405f-846d-bd50f1e3cfff","$version":"A","$type":"Unity.VisualScripting.GetMember","$id":"13"},{"defaultValues":{},"position":{"x":327.0,"y":105.0},"guid":"6a3dd3d5-2698-4fa3-8ed7-77b6deb02e60","$version":"A","$type":"Unity.VisualScripting.GenericMultiply","$id":"16"},{"specifyFallback":false,"kind":"Object","defaultValues":{"name":{"$content":"MoveAxis","$type":"System.String"},"object":null},"position":{"x":-222.0,"y":174.0},"guid":"943ca07f-05c3-4ca6-9f9e-0fcb7666bd4e","$version":"A","$type":"Unity.VisualScripting.GetVariable","$id":"18"},{"specifyFallback":false,"kind":"Object","defaultValues":{"name":{"$content":"MoveSpeed","$type":"System.String"},"object":null},"position":{"x":2.0,"y":127.0},"guid":"585f8516-a287-4027-9edd-a32b186d4056","$version":"A","$type":"Unity.VisualScripting.GetVariable","$id":"20"},{"coroutine":false,"defaultValues":{},"position":{"x":-200.0,"y":-90.0},"guid":"46ca0fc7-a7e3-4f43-a941-0958d4372f51","$version":"A","$type":"Unity.VisualScripting.Update","$id":"22"},{"chainable":false,"member":{"name":"ClampMagnitude","parameterTypes":["UnityEngine.Vector3","System.Single"],"targetType":"UnityEngine.Vector3","targetTypeName":"UnityEngine.Vector3","$version":"A"},"defaultValues":{"%vector":{"x":0.0,"y":0.0,"z":0.0,"$type":"UnityEngine.Vector3"},"%maxLength":{"$content":1.0,"$type":"System.Single"}},"position":{"x":51.0,"y":-94.0},"guid":"bca56bb8-4bec-4bea-9cf5-e4d668ec8b9d","$version":"A","$type":"Unity.VisualScripting.InvokeMember","$id":"24"},{"chainable":false,"member":{"name":"Rotate","parameterTypes":["UnityEngine.Vector3"],"targetType":"UnityEngine.Transform","targetTypeName":"UnityEngine.Transform","$version":"A"},"defaultValues":{"target":null,"%eulers":{"x":0.0,"y":0.0,"z":0.0,"$type":"UnityEngine.Vector3"}},"position":{"x":474.0,"y":-99.0},"guid":"225c3dff-f67a-4b65-ace9-a256d44ec824","$version":"A","$type":"Unity.VisualScripting.InvokeMember","$id":"27"},{"sourceUnit":{"$ref":"22"},"sourceKey":"trigger","destinationUnit":{"$ref":"24"},"destinationKey":"enter","guid":"09b10888-d599-49b8-a08f-375557fea7e7","$type":"Unity.VisualScripting.ControlConnection"},{"sourceUnit":{"$ref":"24"},"sourceKey":"exit","destinationUnit":{"$ref":"27"},"destinationKey":"enter","guid":"27b14aec-8e1e-46c7-aec3-818655dc1845","$type":"Unity.VisualScripting.ControlConnection"},{"sourceUnit":{"$ref":"24"},"sourceKey":"result","destinationUnit":{"$ref":"16"},"destinationKey":"a","guid":"c30ce814-595a-479d-89af-443a6f162844","$type":"Unity.VisualScripting.ValueConnection"},{"sourceUnit":{"$ref":"13"},"sourceKey":"value","destinationUnit":{"$ref":"11"},"destinationKey":"b","guid":"b45f476c-68f7-4f1f-a598-ffeffb7890d1","$type":"Unity.VisualScripting.ValueConnection"},{"sourceUnit":{"$ref":"18"},"sourceKey":"value","destinationUnit":{"$ref":"24"},"destinationKey":"%vector","guid":"6925e4cb-e6fa-4e24-95a4-bd6e22caa526","$type":"Unity.VisualScripting.ValueConnection"},{"sourceUnit":{"$ref":"20"},"sourceKey":"value","destinationUnit":{"$ref":"11"},"destinationKey":"a","guid":"eab9eb7f-97a7-4b5d-b446-a3de3f819d8c","$type":"Unity.VisualScripting.ValueConnection"},{"sourceUnit":{"$ref":"11"},"sourceKey":"product","destinationUnit":{"$ref":"16"},"destinationKey":"b","guid":"67943085-1b4d-489b-b6e0-324a06b69c9f","$type":"Unity.VisualScripting.ValueConnection"},{"sourceUnit":{"$ref":"16"},"sourceKey":"product","destinationUnit":{"$ref":"27"},"destinationKey":"%eulers","guid":"75041909-5632-432e-957d-bd294f1e73f7","$type":"Unity.VisualScripting.ValueConnection"}],"$version":"A"}}'
    _objectReferences: []
