%YAML 1.1
%TAG !u! tag:unity3d.com,2011:
--- !u!114 &11400000
MonoBehaviour:
  m_ObjectHideFlags: 0
  m_CorrespondingSourceObject: {fileID: 0}
  m_PrefabInstance: {fileID: 0}
  m_PrefabAsset: {fileID: 0}
  m_GameObject: {fileID: 0}
  m_Enabled: 1
  m_EditorHideFlags: 0
  m_Script: {fileID: 11500000, guid: 95e66c6366d904e98bc83428217d4fd7, type: 3}
  m_Name: CapsuleRotation
  m_EditorClassIdentifier: 
  _data:
    _json: '{"graph":{"variables":{"Kind":"Flow","collection":{"$content":[],"$version":"A"},"$version":"A"},"controlInputDefinitions":[],"controlOutputDefinitions":[],"valueInputDefinitions":[],"valueOutputDefinitions":[],"title":"TransformRotation","summary":null,"pan":{"x":152.4824,"y":90.0},"zoom":0.8333333,"elements":[{"coroutine":false,"defaultValues":{},"position":{"x":-233.0,"y":-299.0},"guid":"325615a7-12e7-441e-9d78-56cb497eaeab","$version":"A","$type":"Unity.VisualScripting.Start"},{"coroutine":false,"defaultValues":{},"position":{"x":-235.0,"y":-84.0},"guid":"992f5951-3109-4225-b8d3-a7a108183784","$version":"A","$type":"Unity.VisualScripting.Update","$id":"11"},{"specifyFallback":false,"kind":"Object","defaultValues":{"name":{"$content":"RotationAxis","$type":"System.String"},"object":null},"position":{"x":-243.0,"y":136.0},"guid":"0a860d33-7dc0-4fca-b745-34f7e24cd611","$version":"A","$type":"Unity.VisualScripting.GetVariable","$id":"13"},{"specifyFallback":false,"kind":"Object","defaultValues":{"name":{"$content":"RotationSpeed","$type":"System.String"},"object":null},"position":{"x":33.0,"y":133.0},"guid":"04d67231-1717-4fef-82ba-36530fca1ef3","$version":"A","$type":"Unity.VisualScripting.GetVariable","$id":"15"},{"chainable":false,"member":{"name":"ClampMagnitude","parameterTypes":["UnityEngine.Vector3","System.Single"],"targetType":"UnityEngine.Vector3","targetTypeName":"UnityEngine.Vector3","$version":"A"},"defaultValues":{"%vector":{"x":0.0,"y":0.0,"z":0.0,"$type":"UnityEngine.Vector3"},"%maxLength":{"$content":1.0,"$type":"System.Single"}},"position":{"x":86.0,"y":-90.0},"guid":"3b809ef3-bd88-4ddf-8cdf-626d7d54e95b","$version":"A","$type":"Unity.VisualScripting.InvokeMember","$id":"17"},{"member":{"name":"deltaTime","parameterTypes":null,"targetType":"UnityEngine.Time","targetTypeName":"UnityEngine.Time","$version":"A"},"defaultValues":{},"position":{"x":-239.0,"y":305.0},"guid":"ee58e6bf-9660-4d41-8f1a-373ad25d9dd7","$version":"A","$type":"Unity.VisualScripting.GetMember","$id":"20"},{"chainable":false,"member":{"name":"Rotate","parameterTypes":["UnityEngine.Vector3"],"targetType":"UnityEngine.Transform","targetTypeName":"UnityEngine.Transform","$version":"A"},"defaultValues":{"target":null,"%eulers":{"x":0.0,"y":0.0,"z":0.0,"$type":"UnityEngine.Vector3"}},"position":{"x":566.0,"y":-95.0},"guid":"7d2cc93a-0cae-47a4-b0b0-f3b3fc729fd8","$version":"A","$type":"Unity.VisualScripting.InvokeMember","$id":"23"},{"defaultValues":{},"position":{"x":239.0,"y":285.0},"guid":"ee6a6730-56c0-4382-ab74-80580a368c82","$version":"A","$type":"Unity.VisualScripting.GenericMultiply","$id":"26"},{"defaultValues":{},"position":{"x":375.0,"y":119.0},"guid":"c73ec686-6611-4b8e-aa37-172658bdf6e5","$version":"A","$type":"Unity.VisualScripting.GenericMultiply","$id":"28"},{"sourceUnit":{"$ref":"11"},"sourceKey":"trigger","destinationUnit":{"$ref":"17"},"destinationKey":"enter","guid":"ec0abebd-a4c2-4626-905f-02b7d21688ae","$type":"Unity.VisualScripting.ControlConnection"},{"sourceUnit":{"$ref":"17"},"sourceKey":"exit","destinationUnit":{"$ref":"23"},"destinationKey":"enter","guid":"a20f4960-adde-458b-b1f5-a57e8bd33086","$type":"Unity.VisualScripting.ControlConnection"},{"sourceUnit":{"$ref":"13"},"sourceKey":"value","destinationUnit":{"$ref":"17"},"destinationKey":"%vector","guid":"d812618a-17e7-426b-b0d4-126e2fd6e408","$type":"Unity.VisualScripting.ValueConnection"},{"sourceUnit":{"$ref":"20"},"sourceKey":"value","destinationUnit":{"$ref":"26"},"destinationKey":"b","guid":"f9cd7251-b3b2-495e-b8a0-59f93f12ef02","$type":"Unity.VisualScripting.ValueConnection"},{"sourceUnit":{"$ref":"15"},"sourceKey":"value","destinationUnit":{"$ref":"26"},"destinationKey":"a","guid":"79e20aa1-a841-4fdf-adde-10f4362b77c3","$type":"Unity.VisualScripting.ValueConnection"},{"sourceUnit":{"$ref":"26"},"sourceKey":"product","destinationUnit":{"$ref":"28"},"destinationKey":"b","guid":"9262eb5e-1be1-4071-bdb8-0fc5b2ce9a27","$type":"Unity.VisualScripting.ValueConnection"},{"sourceUnit":{"$ref":"17"},"sourceKey":"result","destinationUnit":{"$ref":"28"},"destinationKey":"a","guid":"e90203d1-07b1-4d77-9415-01147ef38ca6","$type":"Unity.VisualScripting.ValueConnection"},{"sourceUnit":{"$ref":"28"},"sourceKey":"product","destinationUnit":{"$ref":"23"},"destinationKey":"%eulers","guid":"1b31a451-c4c2-482e-a7c8-cbb0c510e2e6","$type":"Unity.VisualScripting.ValueConnection"}],"$version":"A"}}'
    _objectReferences: []
