%YAML 1.1
%TAG !u! tag:unity3d.com,2011:
--- !u!114 &11400000
MonoBehaviour:
  m_ObjectHideFlags: 0
  m_CorrespondingSourceObject: {fileID: 0}
  m_PrefabInstance: {fileID: 0}
  m_PrefabAsset: {fileID: 0}
  m_GameObject: {fileID: 0}
  m_Enabled: 1
  m_EditorHideFlags: 0
  m_Script: {fileID: 11500000, guid: 95e66c6366d904e98bc83428217d4fd7, type: 3}
  m_Name: PlayerTankController
  m_EditorClassIdentifier: 
  _data:
    _json: '{"graph":{"variables":{"Kind":"Flow","collection":{"$content":[],"$version":"A"},"$version":"A"},"controlInputDefinitions":[],"controlOutputDefinitions":[],"valueInputDefinitions":[],"valueOutputDefinitions":[],"title":"PlayerTankController","summary":null,"pan":{"x":451.8452,"y":206.684},"zoom":0.7916667,"elements":[{"coroutine":false,"defaultValues":{},"position":{"x":-345.0,"y":-268.0},"guid":"07f4b073-9592-4cf2-9071-0d3f390069b6","$version":"A","$type":"Unity.VisualScripting.Update","$id":"9"},{"defaultValues":{},"position":{"x":860.0,"y":-145.0},"guid":"9c1eca33-0b5e-4e62-a920-8bbd63a84a22","$version":"A","$type":"Unity.VisualScripting.GenericMultiply","$id":"11"},{"member":{"name":"deltaTime","parameterTypes":null,"targetType":"UnityEngine.Time","targetTypeName":"UnityEngine.Time","$version":"A"},"defaultValues":{},"position":{"x":428.0,"y":538.0},"guid":"bad719bb-0fd0-4e1a-a28b-21e5710e8811","$version":"A","$type":"Unity.VisualScripting.GetMember","$id":"13"},{"specifyFallback":false,"kind":"Object","defaultValues":{"name":{"$content":"","$type":"System.String"},"object":null},"position":{"x":261.0,"y":487.0},"guid":"e012bd58-3252-4e40-9e86-ce7821c2041d","$version":"A","$type":"Unity.VisualScripting.GetVariable","$id":"16"},{"defaultValues":{"b":{"$content":1.0,"$type":"System.Single"}},"position":{"x":429.0,"y":636.0},"guid":"9ee1a0bd-ce4a-40ca-ba52-8807549b528c","$version":"A","$type":"Unity.VisualScripting.ScalarMultiply","$id":"18"},{"defaultValues":{"b":{"$content":1.0,"$type":"System.Single"}},"position":{"x":608.0,"y":586.0},"guid":"0a2573ca-5a3b-415b-b436-8e3f24137228","$version":"A","$type":"Unity.VisualScripting.ScalarMultiply","$id":"20"},{"chainable":false,"member":{"name":"Translate","parameterTypes":["UnityEngine.Vector3"],"targetType":"UnityEngine.Transform","targetTypeName":"UnityEngine.Transform","$version":"A"},"defaultValues":{"target":null,"%translation":{"x":0.0,"y":0.0,"z":0.0,"$type":"UnityEngine.Vector3"}},"position":{"x":1007.0,"y":-269.0},"guid":"92c73207-9b53-4d22-b400-43e91fe24c5a","$version":"A","$type":"Unity.VisualScripting.InvokeMember","$id":"22"},{"chainable":false,"member":{"name":"Translate","parameterTypes":["UnityEngine.Vector3"],"targetType":"UnityEngine.Transform","targetTypeName":"UnityEngine.Transform","$version":"A"},"defaultValues":{"target":null,"%translation":{"x":0.0,"y":0.0,"z":0.0,"$type":"UnityEngine.Vector3"}},"position":{"x":888.0,"y":235.0},"guid":"9bdc9e40-6ea5-4f51-80e5-ee3243b2ae57","$version":"A","$type":"Unity.VisualScripting.InvokeMember","$id":"25"},{"defaultValues":{},"position":{"x":722.0,"y":-12.0},"guid":"d7450925-950a-4472-82c0-960f8e313044","$version":"A","$type":"Unity.VisualScripting.GenericMultiply","$id":"28"},{"member":{"name":"deltaTime","parameterTypes":null,"targetType":"UnityEngine.Time","targetTypeName":"UnityEngine.Time","$version":"A"},"defaultValues":{},"position":{"x":547.0,"y":75.0},"guid":"3e2fd90d-eb33-490d-b3d5-107ee878fb47","$version":"A","$type":"Unity.VisualScripting.GetMember","$id":"30"},{"defaultValues":{},"position":{"x":751.0,"y":437.0},"guid":"c06371bc-2f80-4361-a3c1-70c7dc450f1a","$version":"A","$type":"Unity.VisualScripting.GenericMultiply","$id":"33"},{"chainable":false,"member":{"name":"ClampMagnitude","parameterTypes":["UnityEngine.Vector3","System.Single"],"targetType":"UnityEngine.Vector3","targetTypeName":"UnityEngine.Vector3","$version":"A"},"defaultValues":{"%vector":{"x":0.0,"y":0.0,"z":0.0,"$type":"UnityEngine.Vector3"},"%maxLength":{"$content":0.0,"$type":"System.Single"}},"position":{"x":309.0,"y":235.0},"guid":"43025b21-71d0-4923-b2bd-052fc165ef7c","$version":"A","$type":"Unity.VisualScripting.InvokeMember","$id":"35"},{"specifyFallback":false,"kind":"Object","defaultValues":{"name":{"$content":"","$type":"System.String"},"object":null},"position":{"x":553.0,"y":-97.0},"guid":"b226fe58-5653-4dfb-a0c0-a7bf2ab4d98b","$version":"A","$type":"Unity.VisualScripting.GetVariable","$id":"38"},{"chainable":false,"member":{"name":"GetKey","parameterTypes":["UnityEngine.KeyCode"],"targetType":"UnityEngine.Input","targetTypeName":"UnityEngine.Input","$version":"A"},"defaultValues":{"%key":{"$content":"None","$type":"UnityEngine.KeyCode"}},"position":{"x":-344.0,"y":-100.0},"guid":"2b1e55d7-dee6-4cc5-9f67-92787b564ac0","$version":"A","$type":"Unity.VisualScripting.InvokeMember","$id":"40"},{"chainable":false,"member":{"name":"GetKey","parameterTypes":["UnityEngine.KeyCode"],"targetType":"UnityEngine.Input","targetTypeName":"UnityEngine.Input","$version":"A"},"defaultValues":{"%key":{"$content":"None","$type":"UnityEngine.KeyCode"}},"position":{"x":-77.0,"y":92.0},"guid":"1b9218e9-7d79-44d6-b5c7-ef29568145b7","$version":"A","$type":"Unity.VisualScripting.InvokeMember","$id":"43"},{"defaultValues":{},"position":{"x":95.0,"y":-32.0},"guid":"e879335a-1511-41ae-8fe8-2a8fecc7d449","$version":"A","$type":"Unity.VisualScripting.If","$id":"46"},{"defaultValues":{},"position":{"x":-39.0,"y":-267.0},"guid":"645c0d56-8ba5-46d0-bb99-6621700f3f81","$version":"A","$type":"Unity.VisualScripting.If","$id":"48"},{"member":{"name":"forward","parameterTypes":null,"targetType":"UnityEngine.Vector3","targetTypeName":"UnityEngine.Vector3","$version":"A"},"defaultValues":{},"position":{"x":272.0,"y":-138.0},"guid":"3e6114b5-0868-45df-ae7e-eb2d745cda17","$version":"A","$type":"Unity.VisualScripting.GetMember","$id":"50"},{"member":{"name":"forward","parameterTypes":null,"targetType":"UnityEngine.Vector3","targetTypeName":"UnityEngine.Vector3","$version":"A"},"defaultValues":{},"position":{"x":137.0,"y":278.0},"guid":"17ed2786-46b5-4d72-8bf9-bc6463b63983","$version":"A","$type":"Unity.VisualScripting.GetMember","$id":"53"},{"chainable":false,"member":{"name":"ClampMagnitude","parameterTypes":["UnityEngine.Vector3","System.Single"],"targetType":"UnityEngine.Vector3","targetTypeName":"UnityEngine.Vector3","$version":"A"},"defaultValues":{"%vector":{"x":0.0,"y":0.0,"z":0.0,"$type":"UnityEngine.Vector3"},"%maxLength":{"$content":0.0,"$type":"System.Single"}},"position":{"x":433.0,"y":-270.0},"guid":"d3a3ace3-5bc2-40ae-a88e-f56b4f028063","$version":"A","$type":"Unity.VisualScripting.InvokeMember","$id":"56"},{"sourceUnit":{"$ref":"9"},"sourceKey":"trigger","destinationUnit":{"$ref":"48"},"destinationKey":"enter","guid":"44a7aa50-1538-4c60-802a-b39a201d794a","$type":"Unity.VisualScripting.ControlConnection"},{"sourceUnit":{"$ref":"56"},"sourceKey":"exit","destinationUnit":{"$ref":"22"},"destinationKey":"enter","guid":"bdc0cd2f-81af-41bf-8633-a8a2c0d69998","$type":"Unity.VisualScripting.ControlConnection"},{"sourceUnit":{"$ref":"35"},"sourceKey":"exit","destinationUnit":{"$ref":"25"},"destinationKey":"enter","guid":"df4d97e4-57db-4913-9146-7ea5dfdccfba","$type":"Unity.VisualScripting.ControlConnection"},{"sourceUnit":{"$ref":"46"},"sourceKey":"ifTrue","destinationUnit":{"$ref":"35"},"destinationKey":"enter","guid":"d225901d-22f1-49f1-ac9c-c00d3bc6105c","$type":"Unity.VisualScripting.ControlConnection"},{"sourceUnit":{"$ref":"48"},"sourceKey":"ifTrue","destinationUnit":{"$ref":"56"},"destinationKey":"enter","guid":"bbefd270-c311-4b1e-a06e-b30d4c6b6cb0","$type":"Unity.VisualScripting.ControlConnection"},{"sourceUnit":{"$ref":"48"},"sourceKey":"ifFalse","destinationUnit":{"$ref":"46"},"destinationKey":"enter","guid":"155adf1a-54c1-4b8a-b0f3-7b6081f45038","$type":"Unity.VisualScripting.ControlConnection"},{"sourceUnit":{"$ref":"30"},"sourceKey":"value","destinationUnit":{"$ref":"28"},"destinationKey":"b","guid":"f4ab76ec-29b1-4d50-96c8-bd2843c0b3a6","$type":"Unity.VisualScripting.ValueConnection"},{"sourceUnit":{"$ref":"28"},"sourceKey":"product","destinationUnit":{"$ref":"11"},"destinationKey":"b","guid":"8cee438c-e3f3-4884-9d45-d83769a54759","$type":"Unity.VisualScripting.ValueConnection"},{"sourceUnit":{"$ref":"20"},"sourceKey":"product","destinationUnit":{"$ref":"33"},"destinationKey":"b","guid":"ccd186c7-340c-492c-9c72-5ed1593b8c12","$type":"Unity.VisualScripting.ValueConnection"},{"sourceUnit":{"$ref":"13"},"sourceKey":"value","destinationUnit":{"$ref":"20"},"destinationKey":"a","guid":"ba8142f0-1687-4278-976d-ca620bd064be","$type":"Unity.VisualScripting.ValueConnection"},{"sourceUnit":{"$ref":"18"},"sourceKey":"product","destinationUnit":{"$ref":"20"},"destinationKey":"b","guid":"e03e3c2e-54b7-41c0-b101-8fe4e184cdd2","$type":"Unity.VisualScripting.ValueConnection"},{"sourceUnit":{"$ref":"16"},"sourceKey":"value","destinationUnit":{"$ref":"18"},"destinationKey":"a","guid":"f56832f9-5305-42ce-9c62-fb24ae67a386","$type":"Unity.VisualScripting.ValueConnection"},{"sourceUnit":{"$ref":"33"},"sourceKey":"product","destinationUnit":{"$ref":"25"},"destinationKey":"%translation","guid":"5938e3a9-deca-4f0a-8145-89076b342191","$type":"Unity.VisualScripting.ValueConnection"},{"sourceUnit":{"$ref":"35"},"sourceKey":"result","destinationUnit":{"$ref":"33"},"destinationKey":"a","guid":"a416bb4a-d00b-4fea-ab55-2dcf134cec87","$type":"Unity.VisualScripting.ValueConnection"},{"sourceUnit":{"$ref":"38"},"sourceKey":"value","destinationUnit":{"$ref":"28"},"destinationKey":"a","guid":"37fcb657-aa0a-4654-9a73-e666b00c0763","$type":"Unity.VisualScripting.ValueConnection"},{"sourceUnit":{"$ref":"50"},"sourceKey":"value","destinationUnit":{"$ref":"56"},"destinationKey":"%vector","guid":"4224d743-de1e-444d-b3f7-37012ad017b0","$type":"Unity.VisualScripting.ValueConnection"},{"sourceUnit":{"$ref":"43"},"sourceKey":"result","destinationUnit":{"$ref":"46"},"destinationKey":"condition","guid":"b2369cdf-c54e-4a06-8e2d-44f009b6e486","$type":"Unity.VisualScripting.ValueConnection"},{"sourceUnit":{"$ref":"40"},"sourceKey":"result","destinationUnit":{"$ref":"48"},"destinationKey":"condition","guid":"3adb8bf0-66e3-40e5-9b29-099eb188cb4e","$type":"Unity.VisualScripting.ValueConnection"},{"sourceUnit":{"$ref":"56"},"sourceKey":"result","destinationUnit":{"$ref":"11"},"destinationKey":"a","guid":"f1d75a33-3515-4032-829f-e20a9f4627c2","$type":"Unity.VisualScripting.ValueConnection"},{"sourceUnit":{"$ref":"53"},"sourceKey":"value","destinationUnit":{"$ref":"35"},"destinationKey":"%vector","guid":"d09437c4-44c2-4bd6-87a8-7f004efe4386","$type":"Unity.VisualScripting.ValueConnection"},{"sourceUnit":{"$ref":"11"},"sourceKey":"product","destinationUnit":{"$ref":"22"},"destinationKey":"%translation","guid":"38cbb4e1-9a60-4aeb-887b-88d65b7c9f5a","$type":"Unity.VisualScripting.ValueConnection"}],"$version":"A"}}'
    _objectReferences: []
